{
    "type": "application",
    "source-directories": [
        "src"
    ],
    "elm-version": "0.19.0",
    "dependencies": {
        "direct": {
            "elm/browser": "1.0.0",
            "elm/core": "1.0.0",
            "elm/html": "1.0.0",
            "elm/http": "1.0.0",
            "elm/json": "1.0.0",
            "elm/url": "1.0.0",
            "elm-community/json-extra": "4.0.0",
            "elm-community/list-extra": "8.1.0"
        },
        "indirect": {
            "elm/parser": "1.1.0",
            "elm/time": "1.0.0",
            "elm/virtual-dom": "1.0.2",
            "rtfeldman/elm-iso8601-date-strings": "1.1.2"
        }
    },
    "test-dependencies": {
        "direct": {},
        "indirect": {}
    }
}